4 Morphologische Produktivität live: Ein Blick auf die Bestimmungsglieder | Corona-Morphologie: Einfache Produktivitätsanalysen an konkreten Beispielen
…
d <- read_delim("Coronakomposita.txt", delim = "\t",
                col_names = c("Freq", "word", "date"))

## Parsed with column specification:
## cols(
##   Freq = col_double(),
##   word = col_character(),
##   date = col_date(format = "")
## )

# Hier lassen wir uns einfach die ersten paar Datenpunkte anzeigen:
d

## # A tibble: 14,682 x 3
##     Freq word    date      
##    <dbl> <chr>   <date>    
##  1     1 Corona  2020-03-04
##  2     1 Corona* 2020-04-01
##  3     1 Corona* 2020-04-03
##  4     1 Corona* 2020-04-08
##  5     1 Corona* 2020-04-09
##  6     1 Corona* 2020-04-13
##  7     1 Corona* 2020-04-18
##  8     1 Corona* 2020-05-08
##  9     1 Corona* 2020-05-18
## 10     1 Corona* 2020-05-22
## # … with 14,672 more rows
…
